[gd_scene load_steps=2 format=2]

[ext_resource path="res://Authors/llamadrama/toy_car.glb" type="PackedScene" id=1]

[node name="toy_car" instance=ExtResource( 1 )]

[node name="Cylinder" parent="." index="3"]
transform = Transform( 0.341017, 0, 5.96253e-08, 0, 0.341017, 0, -5.96253e-08, 0, 0.341017, -0.00844294, 7.13149, -0.0858263 )
